…
- R's `read_csv` tells us more about what it's done than Pandas does
  - Guesses at columns' data types based on the first thousand values
  - In a better universe, people used the first *two* rows of their spreadsheets for name *and units*
- Now have a look at the *tibble*
  - The tidyverse replacement for R's `data.frame`

```r
data
```
```output
# A tibble: 1,728 x 5
   country  year estimate    hi    lo
   <chr>   <int>    <dbl> <dbl> <dbl>
 1 AFG      2009       NA    NA    NA
 2 AFG      2010       NA    NA    NA
 3 AFG      2011       NA    NA    NA
 4 AFG      2012       NA    NA    NA
 5 AFG      2013       NA    NA    NA
 6 AFG      2014       NA    NA    NA
 7 AFG      2015       NA    NA    NA
 8 AFG      2016       NA    NA    NA
 9 AFG      2017       NA    NA    NA
10 AGO      2009       NA    NA    NA
# ... with 1,718 more rows
```
…
- Get exactly the same output in Python with `data.estimate`
  - Column names can be accessed using string indices or as attribute names
- Same works in R

```r
data['estimate']
```
```output
# A tibble: 1,728 x 1
   estimate
      <dbl>
 1       NA
 2       NA
 3       NA
 4       NA
 5       NA
 6       NA
 7       NA
 8       NA
 9       NA
10       NA
# ... with 1,718 more rows
```
…
```py
data.iloc[:, 0][0]
```
```output
'AFG'
```

- In R, a single index is interpreted as the column index

```r
data[1]
```
```output
# A tibble: 1,728 x 1
   country
   <chr>
 1 AFG
 2 AFG
 3 AFG
 4 AFG
 5 AFG
 6 AFG
 7 AFG
 8 AFG
 9 AFG
10 AGO
# ... with 1,718 more rows
```

- But notice that the output is not a vector, but another tibble (i.e., an N-row, 1-column structure)
- Which means that adding another index does column-wise indexing on that tibble

```r
data[1][1]
```
```output
# A tibble: 1,728 x 1
   country
   <chr>
 1 AFG
 2 AFG
 3 AFG
 4 AFG
 5 AFG
 6 AFG
 7 AFG
 8 AFG
 9 AFG
10 AGO
# ... with 1,718 more rows
```
…
## Tidy Code

- The five basic data transformation operations in the tidyverse are:
  - `filter`: choose observations (rows) by value(s)
  - `arrange`: reorder rows
  - `select`: choose variables (columns) by name
  - `mutate`: derive new variables from existing ones
  - `summarize`: combine many values to create a single new value
- `filter(tibble, ...criteria...)` keeps rows that pass all of the specified criteria

```r
filter(data, lo > 0.5)
```
```output
# A tibble: 183 x 5
   country  year estimate    hi    lo
   <chr>   <int>    <dbl> <dbl> <dbl>
 1 ARG      2016     0.67  0.77  0.61
 2 ARG      2017     0.66  0.77  0.6 
 3 AZE      2014     0.74  0.95  0.53
 4 AZE      2015     0.83  0.95  0.64
 5 AZE      2016     0.75  0.95  0.56
 6 AZE      2017     0.74  0.95  0.56
 7 BLR      2009     0.95  0.95  0.95
 8 BLR      2010     0.95  0.95  0.95
 9 BLR      2011     0.95  0.95  0.91
10 BLR      2012     0.95  0.95  0.95
# ... with 173 more rows
```
…
```r
data %>% filter(lo > 0.5)
```
```output
# A tibble: 183 x 5
   country  year estimate    hi    lo
   <chr>   <int>    <dbl> <dbl> <dbl>
 1 ARG      2016     0.67  0.77  0.61
 2 ARG      2017     0.66  0.77  0.6 
 3 AZE      2014     0.74  0.95  0.53
 4 AZE      2015     0.83  0.95  0.64
 5 AZE      2016     0.75  0.95  0.56
 6 AZE      2017     0.74  0.95  0.56
 7 BLR      2009     0.95  0.95  0.95
 8 BLR      2010     0.95  0.95  0.95
 9 BLR      2011     0.95  0.95  0.91
10 BLR      2012     0.95  0.95  0.95
# ... with 173 more rows
```
…
- Breaking the condition into stages may or may not make reading easier, but it sure helps development and testing
- Let's increase the band from 10% to 20%

```r
data %>% filter(estimate != 0.95) %>% filter(lo > 0.5) %>% filter(hi <= (lo + 0.2))
```
```output
# A tibble: 55 x 5
   country  year estimate    hi    lo
   <chr>   <int>    <dbl> <dbl> <dbl>
 1 ARG      2016     0.67  0.77  0.61
 2 ARG      2017     0.66  0.77  0.6 
 3 CHL      2011     0.64  0.72  0.56
 4 CHL      2013     0.67  0.77  0.59
 5 CHL      2014     0.77  0.87  0.67
 6 CHL      2015     0.92  0.95  0.79
 7 CHL      2016     0.7   0.79  0.62
 8 CHL      2017     0.85  0.95  0.76
 9 CPV      2014     0.94  0.95  0.76
10 CPV      2016     0.94  0.95  0.76
# ... with 45 more rows
```

- Order by low value in descending order
  - Break the line the way the [tidyverse style guide](http://style.tidyverse.org/) recommends

```r
data %>%
  filter(estimate != 0.95) %>%
  filter(lo > 0.5) %>%
  filter(hi <= (lo + 0.2)) %>%
  arrange(desc(lo))
```
```output
# A tibble: 55 x 5
   country  year estimate    hi    lo
   <chr>   <int>    <dbl> <dbl> <dbl>
 1 TTO      2017     0.94  0.95  0.86
 2 SWZ      2011     0.93  0.95  0.84
 3 CUB      2014     0.92  0.95  0.83
 4 TTO      2016     0.9   0.95  0.83
 5 CRI      2009     0.92  0.95  0.81
 6 CRI      2012     0.89  0.95  0.81
 7 NAM      2014     0.91  0.95  0.81
 8 URY      2016     0.9   0.95  0.81
 9 ZMB      2014     0.91  0.95  0.81
10 KAZ      2015     0.84  0.95  0.8 
# ... with 45 more rows
```

- Only need the year, the low value, and the high value

```r
data %>%
  filter(estimate != 0.95) %>%
  filter(lo > 0.5) %>%
  filter(hi <= (lo + 0.2)) %>%
  arrange(desc(lo)) %>%
  select(year, lo, hi)
```
```output
# A tibble: 55 x 3
    year    lo    hi
   <int> <dbl> <dbl>
 1  2017  0.86  0.95
 2  2011  0.84  0.95
 3  2014  0.83  0.95
 4  2016  0.83  0.95
 5  2009  0.81  0.95
 6  2012  0.81  0.95
 7  2014  0.81  0.95
 8  2016  0.81  0.95
 9  2014  0.81  0.95
10  2015  0.8   0.95
# ... with 45 more rows
```
…
```r
data %>%
  filter(estimate != 0.95) %>%
  filter(lo > 0.5) %>%
  filter(hi <= (lo + 0.2)) %>%
  arrange(desc(lo)) %>%
  select(-country, -esimate) %>%
  mutate(difference = hi - lo)
```
```output
# A tibble: 55 x 4
    year    hi    lo difference
   <int> <dbl> <dbl>      <dbl>
 1  2017  0.95  0.86     0.0900
 2  2011  0.95  0.84     0.110 
 3  2014  0.95  0.83     0.12  
 4  2016  0.95  0.83     0.12  
 5  2009  0.95  0.81     0.140 
 6  2012  0.95  0.81     0.140 
 7  2014  0.95  0.81     0.140 
 8  2016  0.95  0.81     0.140 
 9  2014  0.95  0.81     0.140 
10  2015  0.95  0.8      0.150 
# ... with 45 more rows
```
…
