Cleaning Up Data
…
## [[1]]
## # A tibble: 192 x 5
##    country  year estimate    hi    lo
##    <chr>   <dbl>    <dbl> <dbl> <dbl>
##  1 AFG      2009       NA    NA    NA
##  2 ALB      2009       NA    NA    NA
##  3 DZA      2009       NA    NA    NA
##  4 AGO      2009       NA    NA    NA
##  5 AIA      2009       NA    NA    NA
##  6 ATG      2009       NA    NA    NA
##  7 ARG      2009       NA    NA    NA
##  8 ARM      2009       NA    NA    NA
##  9 AUS      2009       NA    NA    NA
## 10 AUT      2009       NA    NA    NA
## # ... with 182 more rows
## 
## [[2]]
## # A tibble: 192 x 5
##    country  year estimate    hi    lo
##    <chr>   <dbl>    <dbl> <dbl> <dbl>
##  1 AFG      2010       NA    NA NA   
##  2 ALB      2010       NA    NA NA   
##  3 DZA      2010       NA    NA NA   
##  4 AGO      2010       NA    NA  0.03
##  5 AIA      2010       NA    NA NA   
##  6 ATG      2010       NA    NA NA   
##  7 ARG      2010       NA    NA NA   
##  8 ARM      2010       NA    NA NA   
##  9 AUS      2010       NA    NA NA   
## 10 AUT      2010       NA    NA NA   
## # ... with 182 more rows
## 
## [[3]]
## # A tibble: 192 x 5
##    country  year estimate    hi    lo
##    <chr>   <dbl>    <dbl> <dbl> <dbl>
##  1 AFG      2011       NA NA    NA   
##  2 ALB      2011       NA NA    NA   
##  3 DZA      2011       NA NA    NA   
##  4 AGO      2011       NA  0.03  0.04
##  5 AIA      2011       NA NA    NA   
##  6 ATG      2011       NA NA    NA   
##  7 ARG      2011       NA NA    NA   
##  8 ARM      2011       NA NA    NA   
##  9 AUS      2011       NA NA    NA   
## 10 AUT      2011       NA NA    NA   
## # ... with 182 more rows
## 
## [[4]]
## # A tibble: 192 x 5
##    country  year estimate    hi    lo
##    <chr>   <dbl>    <dbl> <dbl> <dbl>
##  1 AFG      2012    NA    NA    NA   
##  2 ALB      2012    NA    NA    NA   
##  3 DZA      2012    NA    NA    NA   
##  4 AGO      2012     0.03  0.04  0.02
##  5 AIA      2012    NA    NA    NA   
##  6 ATG      2012    NA    NA    NA   
##  7 ARG      2012    NA    NA    NA   
##  8 ARM      2012    NA    NA    NA   
##  9 AUS      2012    NA    NA    NA   
## 10 AUT      2012    NA    NA    NA   
## # ... with 182 more rows
## 
## [[5]]
## # A tibble: 192 x 5
##    country  year estimate    hi    lo
##    <chr>   <dbl>    <dbl> <dbl> <dbl>
##  1 AFG      2013    NA    NA    NA   
##  2 ALB      2013    NA    NA    NA   
##  3 DZA      2013    NA    NA     0.38
##  4 AGO      2013     0.04  0.02  0.05
##  5 AIA      2013    NA    NA    NA   
##  6 ATG      2013    NA    NA    NA   
##  7 ARG      2013    NA    NA     0.13
##  8 ARM      2013    NA    NA    NA   
##  9 AUS      2013    NA    NA    NA   
## 10 AUT      2013    NA    NA    NA   
## # ... with 182 more rows
## 
## [[6]]
## # A tibble: 192 x 5
##    country  year estimate    hi    lo
##    <chr>   <dbl>    <dbl> <dbl> <dbl>
##  1 AFG      2014    NA    NA    NA   
##  2 ALB      2014    NA    NA    NA   
##  3 DZA      2014    NA     0.38  0.42
##  4 AGO      2014     0.02  0.05  0.07
##  5 AIA      2014    NA    NA    NA   
##  6 ATG      2014    NA    NA    NA   
##  7 ARG      2014    NA     0.13  0.14
##  8 ARM      2014    NA    NA    NA   
##  9 AUS      2014    NA    NA    NA   
## 10 AUT      2014    NA    NA    NA   
## # ... with 182 more rows
## 
## [[7]]
## # A tibble: 192 x 5
##    country  year estimate    hi    lo
##    <chr>   <dbl>    <dbl> <dbl> <dbl>
##  1 AFG      2015    NA    NA    NA   
##  2 ALB      2015    NA    NA    NA   
##  3 DZA      2015     0.38  0.42  0.35
##  4 AGO      2015     0.05  0.07  0.04
##  5 AIA      2015    NA    NA    NA   
##  6 ATG      2015    NA    NA    NA   
##  7 ARG      2015     0.13  0.14  0.11
##  8 ARM      2015    NA    NA    NA   
##  9 AUS      2015    NA    NA    NA   
## 10 AUT      2015    NA    NA    NA   
## # ... with 182 more rows
## 
## [[8]]
## # A tibble: 192 x 5
##    country  year estimate    hi    lo
##    <chr>   <dbl>    <dbl> <dbl> <dbl>
##  1 AFG      2016    NA    NA    NA   
##  2 ALB      2016    NA    NA    NA   
##  3 DZA      2016     0.42  0.35  0.23
##  4 AGO      2016     0.07  0.04  0.06
##  5 AIA      2016    NA    NA    NA   
##  6 ATG      2016    NA    NA    NA   
##  7 ARG      2016     0.14  0.11  0.12
##  8 ARM      2016    NA    NA    NA   
##  9 AUS      2016    NA    NA    NA   
## 10 AUT      2016    NA    NA    NA   
## # ... with 182 more rows
## 
## [[9]]
## # A tibble: 192 x 5
##    country  year estimate    hi    lo
##    <chr>   <dbl>    <dbl> <dbl> <dbl>
##  1 AFG      2017    NA    NA    NA   
##  2 ALB      2017    NA    NA    NA   
##  3 DZA      2017     0.35  0.23  0.25
##  4 AGO      2017     0.04  0.06  0.08
##  5 AIA      2017    NA    NA    NA   
##  6 ATG      2017    NA    NA    NA   
##  7 ARG      2017     0.11  0.12  0.14
##  8 ARM      2017    NA    NA    NA   
##  9 AUS      2017    NA    NA    NA   
## 10 AUT      2017    NA    NA    NA   
## # ... with 182 more rows
…
As its name suggests,
bind_rows takes a list of tables and concatenates their rows in order.
Since we have taken care to give all of those tables the same column names,
no subsequent renaming is necessary.
We do,
however,
use arrange to order entries by country and year.

Now comes the payoff for all that hard work:

tidy <- bind_rows(chunks)
tidy <- arrange(tidy, country, year)
tidy

## # A tibble: 1,728 x 5
##    country  year estimate    hi    lo
##    <chr>   <dbl>    <dbl> <dbl> <dbl>
##  1 ""       2009       NA    NA    NA
##  2 ""       2010       NA    NA    NA
##  3 ""       2011       NA    NA    NA
##  4 ""       2012       NA    NA    NA
##  5 ""       2013       NA    NA    NA
##  6 ""       2014       NA    NA    NA
##  7 ""       2015       NA    NA    NA
##  8 ""       2016       NA    NA    NA
##  9 ""       2017       NA    NA    NA
## 10 AFG      2009       NA    NA    NA
## # ... with 1,718 more rows
…
## Parsed with column specification:
## cols(
##   .default = col_character()
## )

## See spec(...) for full column specifications.

missing <- raw %>%
  filter(is.na(Countries) | (Countries == "") | is.na(ISO3) | (ISO3 == "")) %>%
  select(Countries, ISO3)
missing

## # A tibble: 21 x 2
##    Countries                       ISO3 
##    <chr>                           <chr>
##  1 Kosovo                          ""   
##  2 ""                              ""   
##  3 ""                              ""   
##  4 ""                              ""   
##  5 Eastern and Southern Africa     ""   
##  6 Eastern Europe and Central Asia ""   
##  7 Latin America and the Caribbean ""   
##  8 Middle East and North Africa    ""   
##  9 North America                   ""   
## 10 South Asia                      ""   
## # ... with 11 more rows
…
