Chapter 6 Cleaning Up Data | The Tidynomicon
…
[[1]]
# A tibble: 192 x 5
   country  year estimate    hi    lo
   <chr>   <dbl>    <dbl> <dbl> <dbl>
 1 AFG      2009       NA    NA    NA
 2 ALB      2009       NA    NA    NA
 3 DZA      2009       NA    NA    NA
 4 AGO      2009       NA    NA    NA
 5 AIA      2009       NA    NA    NA
 6 ATG      2009       NA    NA    NA
 7 ARG      2009       NA    NA    NA
 8 ARM      2009       NA    NA    NA
 9 AUS      2009       NA    NA    NA
10 AUT      2009       NA    NA    NA
# … with 182 more rows
…
As its name suggests,
bind_rows takes a list of tables and concatenates their rows in order.
Since we have taken care to give all of those tables the same column names,
no subsequent renaming is necessary.
We do,
however,
use arrange to order entries by country and year.

Now comes the payoff for all that hard work:

tidy <- bind_rows(chunks)
tidy <- arrange(tidy, country, year)
tidy

# A tibble: 1,728 x 5
   country  year estimate    hi    lo
   <chr>   <dbl>    <dbl> <dbl> <dbl>
 1 ""       2009       NA    NA    NA
 2 ""       2010       NA    NA    NA
 3 ""       2011       NA    NA    NA
 4 ""       2012       NA    NA    NA
 5 ""       2013       NA    NA    NA
 6 ""       2014       NA    NA    NA
 7 ""       2015       NA    NA    NA
 8 ""       2016       NA    NA    NA
 9 ""       2017       NA    NA    NA
10 AFG      2009       NA    NA    NA
# … with 1,718 more rows
…
Parsed with column specification:
cols(
  .default = col_character()
)

See spec(...) for full column specifications.

missing <- raw %>%
  filter(is.na(Countries) | (Countries == "") | is.na(ISO3) | (ISO3 == "")) %>%
  select(Countries, ISO3)
missing

# A tibble: 21 x 2
   Countries                       ISO3 
   <chr>                           <chr>
 1 Kosovo                          ""   
 2 ""                              ""   
 3 ""                              ""   
 4 ""                              ""   
 5 Eastern and Southern Africa     ""   
 6 Eastern Europe and Central Asia ""   
 7 Latin America and the Caribbean ""   
 8 Middle East and North Africa    ""   
 9 North America                   ""   
10 South Asia                      ""   
# … with 11 more rows
…
