The Tidyverse
…
R’s read_csv tells us more about what it has done than Pandas does. In particular, it guesses at columns’ data types based on the first thousand values, and then tells us what types it has inferred. (In a better universe, people habitually use the first two rows of their spreadsheets for name and units, but we do not live there.)

We can now look at what read_csv has produced.

data

## # A tibble: 1,728 x 5
##    country  year estimate    hi    lo
##    <chr>   <int>    <dbl> <dbl> <dbl>
##  1 AFG      2009       NA    NA    NA
##  2 AFG      2010       NA    NA    NA
##  3 AFG      2011       NA    NA    NA
##  4 AFG      2012       NA    NA    NA
##  5 AFG      2013       NA    NA    NA
##  6 AFG      2014       NA    NA    NA
##  7 AFG      2015       NA    NA    NA
##  8 AFG      2016       NA    NA    NA
##  9 AFG      2017       NA    NA    NA
## 10 AGO      2009       NA    NA    NA
## # ... with 1,718 more rows
…
We would get exactly the same output in Python with data.estimate, i.e., with an attribute name rather than a string subscript. The same tricks work in R:

data['estimate']

## # A tibble: 1,728 x 1
##    estimate
##       <dbl>
##  1       NA
##  2       NA
##  3       NA
##  4       NA
##  5       NA
##  6       NA
##  7       NA
##  8       NA
##  9       NA
## 10       NA
## # ... with 1,718 more rows
…
Since this is a column, it can be indexed:

print(data.iloc[:, 0][0])

## AFG

In R, a single index is interpreted as the column index:

data[1]

## # A tibble: 1,728 x 1
##    country
##    <chr>  
##  1 AFG    
##  2 AFG    
##  3 AFG    
##  4 AFG    
##  5 AFG    
##  6 AFG    
##  7 AFG    
##  8 AFG    
##  9 AFG    
## 10 AGO    
## # ... with 1,718 more rows

But notice that the output is not a vector, but another tibble (i.e., an N-row, 1-column structure). This means that adding another index does column-wise indexing on that tibble:

data[1][1]

## # A tibble: 1,728 x 1
##    country
##    <chr>  
##  1 AFG    
##  2 AFG    
##  3 AFG    
##  4 AFG    
##  5 AFG    
##  6 AFG    
##  7 AFG    
##  8 AFG    
##  9 AFG    
## 10 AGO    
## # ... with 1,718 more rows
…
filter: choose observations (rows) by value(s)

arrange: reorder rows

select: choose variables (columns) by name

mutate: derive new variables from existing ones

summarize: combine many values to create a single new value

filter(tibble, ...criteria...) keeps rows that pass all of the specified criteria:

filter(data, lo > 0.5)

## # A tibble: 183 x 5
##    country  year estimate    hi    lo
##    <chr>   <int>    <dbl> <dbl> <dbl>
##  1 ARG      2016     0.67  0.77  0.61
##  2 ARG      2017     0.66  0.77  0.6 
##  3 AZE      2014     0.74  0.95  0.53
##  4 AZE      2015     0.83  0.95  0.64
##  5 AZE      2016     0.75  0.95  0.56
##  6 AZE      2017     0.74  0.95  0.56
##  7 BLR      2009     0.95  0.95  0.95
##  8 BLR      2010     0.95  0.95  0.95
##  9 BLR      2011     0.95  0.95  0.91
## 10 BLR      2012     0.95  0.95  0.95
## # ... with 173 more rows

Notice that the expression is lo > 0.5 rather than "lo" > 0.5. The latter expression returns the entire table because the string "lo" is greater than the number 0.5 everywhere. But wait: how is it that lo can be used on its own? It is the name of a column, but there is no variable called lo.

The answer is that R uses lazy evaluation of arguments. Arguments aren’t evaluated until they’re needed, so the function filter actually gets the expression lo > 0.5, which allows it to check that there’s a column called lo and then use it appropriately. This is much tidier than filter(data, data$lo > 0.5) or filter(data, "lo > 0.5"), and is not some kind of eldritch wizardry. Many languages rely on lazy evaluation, and when used circumspectly, it allows us to produce code that is easier to read.

But we can do even better by using the pipe operator %>%, which is about to become your new best friend:

data %>% filter(lo > 0.5)

## # A tibble: 183 x 5
##    country  year estimate    hi    lo
##    <chr>   <int>    <dbl> <dbl> <dbl>
##  1 ARG      2016     0.67  0.77  0.61
##  2 ARG      2017     0.66  0.77  0.6 
##  3 AZE      2014     0.74  0.95  0.53
##  4 AZE      2015     0.83  0.95  0.64
##  5 AZE      2016     0.75  0.95  0.56
##  6 AZE      2017     0.74  0.95  0.56
##  7 BLR      2009     0.95  0.95  0.95
##  8 BLR      2010     0.95  0.95  0.95
##  9 BLR      2011     0.95  0.95  0.91
## 10 BLR      2012     0.95  0.95  0.95
## # ... with 173 more rows
…
data %>% filter(estimate != 0.95) %>% filter(lo > 0.5) %>% filter(hi <= (lo + 0.1))

## # A tibble: 1 x 5
##   country  year estimate    hi    lo
##   <chr>   <int>    <dbl> <dbl> <dbl>
## 1 TTO      2017     0.94  0.95  0.86

Breaking the condition into stages like this doesn’t always make reading easier, but it often helps development and testing.

Let’s increase the band from 10% to 20%:

data %>% filter(estimate != 0.95) %>% filter(lo > 0.5) %>% filter(hi <= (lo + 0.2))

## # A tibble: 55 x 5
##    country  year estimate    hi    lo
##    <chr>   <int>    <dbl> <dbl> <dbl>
##  1 ARG      2016     0.67  0.77  0.61
##  2 ARG      2017     0.66  0.77  0.6 
##  3 CHL      2011     0.64  0.72  0.56
##  4 CHL      2013     0.67  0.77  0.59
##  5 CHL      2014     0.77  0.87  0.67
##  6 CHL      2015     0.92  0.95  0.79
##  7 CHL      2016     0.7   0.79  0.62
##  8 CHL      2017     0.85  0.95  0.76
##  9 CPV      2014     0.94  0.95  0.76
## 10 CPV      2016     0.94  0.95  0.76
## # ... with 45 more rows

And then order by lo in descending order, breaking the line the way the tidyverse style guide recommends:

data %>%
  filter(estimate != 0.95) %>%
  filter(lo > 0.5) %>%
  filter(hi <= (lo + 0.2)) %>%
  arrange(desc(lo))

## # A tibble: 55 x 5
##    country  year estimate    hi    lo
##    <chr>   <int>    <dbl> <dbl> <dbl>
##  1 TTO      2017     0.94  0.95  0.86
##  2 SWZ      2011     0.93  0.95  0.84
##  3 CUB      2014     0.92  0.95  0.83
##  4 TTO      2016     0.9   0.95  0.83
##  5 CRI      2009     0.92  0.95  0.81
##  6 CRI      2012     0.89  0.95  0.81
##  7 NAM      2014     0.91  0.95  0.81
##  8 URY      2016     0.9   0.95  0.81
##  9 ZMB      2014     0.91  0.95  0.81
## 10 KAZ      2015     0.84  0.95  0.8 
## # ... with 45 more rows

We can now add a select call to keep only the three columns we care about:

data %>%
  filter(estimate != 0.95) %>%
  filter(lo > 0.5) %>%
  filter(hi <= (lo + 0.2)) %>%
  arrange(desc(lo)) %>%
  select(year, lo, hi)

## # A tibble: 55 x 3
##     year    lo    hi
##    <int> <dbl> <dbl>
##  1  2017  0.86  0.95
##  2  2011  0.84  0.95
##  3  2014  0.83  0.95
##  4  2016  0.83  0.95
##  5  2009  0.81  0.95
##  6  2012  0.81  0.95
##  7  2014  0.81  0.95
##  8  2016  0.81  0.95
##  9  2014  0.81  0.95
## 10  2015  0.8   0.95
## # ... with 45 more rows

Once again, we are using the unquoted column names year, lo, and hi and letting R’s lazy evaluation take care of the details for us.

Rather than selecting these three columns, we can select out the columns we’re not interested in by negating their names. This leaves the columns that are kept in their original order, rather than putting lo before hi, which won’t matter if we later select by name, but will if we ever want to select by position:

data %>%
  filter(estimate != 0.95) %>%
  filter(lo > 0.5) %>%
  filter(hi <= (lo + 0.2)) %>%
  arrange(desc(lo)) %>%
  select(-country, -estimate)

## # A tibble: 55 x 3
##     year    hi    lo
##    <int> <dbl> <dbl>
##  1  2017  0.95  0.86
##  2  2011  0.95  0.84
##  3  2014  0.95  0.83
##  4  2016  0.95  0.83
##  5  2009  0.95  0.81
##  6  2012  0.95  0.81
##  7  2014  0.95  0.81
##  8  2016  0.95  0.81
##  9  2014  0.95  0.81
## 10  2015  0.95  0.8 
## # ... with 45 more rows

Giddy with power, we now add a column containing the difference between the low and high values. This can be done using either mutate, which adds new columns to the end of an existing tibble, or with transmute, which creates a new tibble containing only the columns we explicitly ask for. Since we want to keep hi and lo, we decide to use mutate:

data %>%
  filter(estimate != 0.95) %>%
  filter(lo > 0.5) %>%
  filter(hi <= (lo + 0.2)) %>%
  arrange(desc(lo)) %>%
  select(-country, -estimate) %>%
  mutate(difference = hi - lo)

## # A tibble: 55 x 4
##     year    hi    lo difference
##    <int> <dbl> <dbl>      <dbl>
##  1  2017  0.95  0.86     0.0900
##  2  2011  0.95  0.84     0.110 
##  3  2014  0.95  0.83     0.12  
##  4  2016  0.95  0.83     0.12  
##  5  2009  0.95  0.81     0.140 
##  6  2012  0.95  0.81     0.140 
##  7  2014  0.95  0.81     0.140 
##  8  2016  0.95  0.81     0.140 
##  9  2014  0.95  0.81     0.140 
## 10  2015  0.95  0.8      0.150 
## # ... with 45 more rows
…
